1914,50.9,87,115.8,32.3,47.1,56.6,97.1,63.9,48.1,62.4,110.3,190.8
1915,105.3,129,36.2,37.3,64.3,33.3,123,76.2,39.4,71.4,73.5,182.7
1916,58.6,129.4,97.9,47.9,70.7,63.7,51.3,89.2,54.8,142.1,110.1,90.4
1917,58.2,30.9,67,55,61.7,65.7,64.3,172.8,54.8,130.7,61.7,43.1
1918,90.1,67.8,39.2,56,57.7,31.5,110.1,60.7,186.2,72.1,67.3,123.2
1919,117.7,71.4,122.1,62.6,26.6,37,58.3,79.1,53.7,65.4,71.2,143.9
1920,111.3,49.9,91,119,75.2,61.9,133.1,48,69,67.8,45.3,91.4
1921,110.5,8.7,64.5,32.6,47.8,10.3,31,98.2,38.5,51.7,65.2,80.4
1922,107.2,95,69.6,77.4,33.2,39.6,119,96.6,80.6,33.1,47.1,118.7
1923,62.4,153.5,48.3,67.9,67.3,20.5,76.7,95,82.9,137.2,92.5,96.8
1924,91.3,24.3,36.2,73,122,63.1,110.4,96.3,111.9,126.9,73,123.3
1925,79.2,124,31.2,71,100.5,4,69.3,86.7,95.1,106,70.3,94.8
1926,110.6,78.3,24.5,65.4,67.1,73,73.6,71.5,53.9,86.6,162.1,23.3
1927,90.8,76.8,86.8,56.8,35.8,98.7,96.2,135,142.3,76,100.5,77.2
1928,160.7,81.3,76.7,39,37.1,98.4,56.9,93.1,32.7,142.2,121.4,84.9
1929,46.4,28.4,10.7,30.8,57.7,46.5,67.1,73.9,27.6,125.2,196.7,184.8
1930,131.4,23.7,64.7,71.3,57,37.7,108.6,108.4,109,98.8,125.1,100
1931,78.9,81.3,21.9,89.9,87.6,95.2,108.9,115.7,72.2,35.4,137,46.7
1932,93.1,8.4,59.7,83,122.2,33.9,101,47.1,92.5,154.6,61.6,51.4
1933,69.3,96.5,74.1,35.4,53.2,57.4,60,31.7,53.2,105,44.8,25.7
1934,81.5,11.6,71.5,72.1,44.3,43.6,42.3,81.1,69.5,84.9,56.9,177.8
1935,43.3,102.6,25.4,98.6,33.1,95.5,23.3,58.1,136.2,131.7,143.2,90.8
1936,122.1,71.8,60.1,50.4,30.2,94.9,135.4,33.2,90.8,62.7,102.3,95.4
1937,125.9,135.9,87.3,77.3,71.5,41.6,64.1,39.1,61.9,80,49.6,93.9
1938,110.7,34,18.9,6.9,70.8,60,86.6,84.6,58.6,131.5,122.8,108.9
1939,154.3,60.5,57.9,64,31,62.8,133.1,72.9,31.9,111.3,154.6,60.1
1940,70.3,74,76.4,59.1,40.7,21.2,109.2,16.8,52.2,107.1,184,74
1941,83.8,97.1,86.4,39.9,59.8,33.3,70.8,116.8,19.8,83.7,79.9,53.8
1942,102.8,29.7,63.8,41.7,99.7,18.5,74.8,87.3,68.3,95.7,40,104.7
1943,148.7,49.1,25.9,36.8,82.8,62.1,55.8,85.7,88.6,86.4,67.9,51.4
1944,85.2,41,12,56.1,39.3,63.6,71.3,75.4,106,116.2,153.3,73.5
1945,80.5,82,34.8,43.7,80.2,81.6,65.5,69.1,64.1,105.9,17.9,99.1
1946,90.4,87.6,37.3,44.7,71.1,84.3,75.1,136.1,126.7,37.4,158.3,97.4
1947,80.4,50.1,163.5,79.6,57.7,64.9,69.6,12.9,50.6,19.4,81.7,78.4
1948,176.7,50.2,39.3,51.9,65.5,92.1,46,114.2,75.4,75,57.3,114.2
1949,44.2,42.5,41.8,68.2,64.8,19.1,53.5,54.3,47.2,152.9,111.3,88.7
1950,38.1,141.6,41.8,73.3,50.9,46.9,98.5,124.8,132.7,46.7,143.5,69.2
1951,92.8,109.8,111.6,71.6,78.3,32.4,48.7,128.7,83.7,31.5,179.8,103.8
1952,86.5,25.5,71.5,58.9,66.1,54.9,34.9,103.2,87.2,106.3,90.3,86.8
1953,32.4,51.7,30.2,73.4,58.8,63.3,97.4,84.8,84.5,70.2,74.2,35
1954,63.6,81.8,76.1,16.6,77.2,88.7,88.7,120.4,93.8,129.5,169.1,93
1955,81.5,60.8,54.5,35.9,101.3,85.1,27.8,28.2,51.4,71.4,61.4,107.8
1956,117.6,24.7,32.7,39.2,24.4,68.7,101.7,152.9,90.4,56.3,33.5,105
1957,78,93.8,71,9.9,46.5,49.1,108.4,105.2,127.5,78,60.9,79.3
1958,89.7,119.7,43.7,29.3,81.7,107.2,96.8,97,123.5,83.9,55.1,100.3
1959,101,11.2,68.3,80.2,28.3,45.8,66.4,34.4,8.4,89.1,123.3,166
1960,127,83.1,49.1,48.1,42,49.5,111.7,106.5,110,166.9,150.9,111.9
1961,112.9,69.6,15.3,95.4,37.9,37.8,66.2,80.7,76.4,116.6,60.6,95.5
1962,110,37.8,42.5,69.5,65.2,19.6,56.4,110.1,100.2,37.2,68.3,71.3
1963,28.1,32.1,101.9,78.4,51.8,81,53.2,98.2,68.7,59.5,155.2,28.6
1964,27.1,30.9,87.5,63.2,58.2,72.1,52.6,52.2,34.9,61.9,59.6,105.3
1965,100.2,15.9,69.9,60.6,61,71.6,96.2,70.3,131.3,34.3,104.2,165.4
1966,55.5,121.5,37.7,100.7,69.9,81.6,73.9,99.5,51.5,121.1,80.9,113.2
1967,62.5,91.4,54.6,44,133.7,38.9,63.3,74.8,100.5,172.7,71.7,76.7
1968,81.8,44.1,61.2,64.2,73,82.9,97.1,65.3,141.5,93.1,67.6,78.1
1969,96.1,66.8,70.1,56.3,110.2,56.1,63.2,71.6,41.3,19.5,130.2,87.1
1970,108.8,83.9,62.1,86.3,23.7,43.4,70.5,79.2,66.6,62.8,167.6,50.7
1971,107.1,36.3,65.4,49.9,46.5,96.2,42.7,108.2,25.2,73.8,91.2,39.1
1972,100.9,74.3,76.4,69,74,77.2,55.1,37,39.3,34.9,103.2,109.1
1973,45.7,43,25.1,65.5,78.2,56.1,85.9,65.8,77.9,53,53.9,69.6
1974,129.2,104.7,44.7,13.2,40.4,63,75.9,88.6,143.1,90,122.8,81.3
1975,123.2,30.2,75,67.6,42.4,19.9,65.4,51,102,35.5,73.2,50
1976,61.3,41.9,46.5,20.1,62,18.1,30.6,25.3,147.9,148.3,81.9,87.8
1977,96.4,134.6,73.5,51.6,48.8,82.4,24.8,93.5,42.5,69.7,105.1,92.5
1978,109.3,79.1,81.9,48.4,40.4,59.8,83.8,64.7,55.2,18.8,62.3,161.7
1979,81.1,59.1,122.9,64.2,113.6,36.1,32.8,90.8,42.5,75.1,91,159.6
1980,75.9,90.7,98.8,16.7,29,117.4,64.2,88.6,65.9,128.1,90.5,81.5
1981,58.8,53.6,156.2,56.6,87.8,47,52.4,41.4,140.9,124.6,70.9,90.1
1982,76.3,48.6,100.6,22.4,42.3,117.2,34.4,83.9,78.7,117.4,126.1,104.9
1983,103.7,38.8,65.6,101.6,110.3,35.6,34.7,32.9,99.5,84.3,49.6,111.2
1984,142.7,56.6,58.5,10.4,58.3,42.7,25.9,56.9,114.8,98.8,142.8,79.2
1985,71.3,28.4,65.5,68.9,64.6,93.8,71.2,115.9,44.8,47.7,76.1,126.5
1986,119.8,16.5,78.5,82.7,85.2,42,54.1,115.8,24.1,95.2,122.4,142
1987,29.7,58.6,89,63.1,45.3,104.3,72.1,66.4,64.6,165,79.3,64.3
1988,153,63.4,101.8,40.2,58.9,38.4,127.5,84.1,62.7,88.8,47.8,45.1
1989,46,87.5,90.7,81.9,20.1,54.9,37.2,57,40.6,96.8,60.1,132.9
1990,131.3,140.7,22.7,38.1,24.2,70.7,34.2,46.2,52.2,101,65.9,99.5
1991,91.1,63.7,74.2,69.2,13.9,92.7,67.7,30.4,61.9,76.1,93.2,48.9
1992,47.8,46.3,83.5,72.3,48,38.2,81.6,127.7,90.9,83.1,136.8,82.3
1993,110.4,15.2,25.3,91.2,86.5,64,80.6,53.1,110.2,87,71.7,162.7
1994,119.8,79.7,93.4,72.1,59.8,35.5,45.1,69.8,102.5,94.7,83.7,137.9
1995,156,110.9,65.5,26.2,47.5,22.4,39,10.3,109.8,55.8,80.5,81.5
1996,62.1,81.6,42.1,49.3,56,29.1,40.6,78.7,33.7,88.3,124.5,51.7
1997,13.8,116.6,30.7,24.2,72.9,123.8,47.3,91.9,35,66.7,113.5,105
1998,116,22.7,96.5,121.8,32.5,124.3,58.5,50.2,92.3,161.1,83.9,90.9
1999,133.9,51.3,70.9,74.9,57.6,82,24.1,103,119,81.9,64.2,151.1
2000,54.5,96.1,38,132.5,83.8,47.6,62.3,66.4,121.5,180.1,174.8,136.6
2001,74.2,96.3,91.3,98.1,42.5,41.9,74,86.1,81.3,131.6,67.7,44.3
2002,95.1,140.7,49.3,53.7,93.7,57.4,83.3,67.3,34.8,133.3,154.1,128.5
2003,86.1,38.8,38.9,45.4,74.6,67.2,75.6,17.6,36.7,57.7,100.1,100.3
2004,124,58.8,53.9,78.5,45.8,58.5,68.5,148.9,65.9,148.5,52.6,69.2
2005,67.6,50.3,52,74.5,47.6,56.6,66.3,59.5,68.4,121.9,90,68.7
2006,35,56.3,93.5,46,109.5,25.6,43.1,90.2,74.9,117.7,110.2,129.8
2007,110.5,100.9,62.7,12.6,110.1,149,136,57.2,50.6,47.3,73.1,99.7
2008,145.2,43.6,99.3,68,67.1,63.1,107.1,119.3,104.8,111.8,87.8,63.9
